{"page":1,"totalCount":1002,"totalPage":101,"limit":10,"list":[{"foodId":"f2737bf826b67cb1","name":"雪糕","healthLevel":3,"calory":"153.0"},{"foodId":"786b2b1a2d2d6a93","name":"雪糕","healthLevel":3,"calory":"174.0"},{"foodId":"281311c4aeacd83e","name":"雪菜","healthLevel":2,"calory":"38.6"},{"foodId":"6eee7a6893a1e780","name":"雪燕","healthLevel":1,"calory":"156.0"},{"foodId":"cb1ca94d0188c1c8","name":"雪蟹","healthLevel":2,"calory":"90.0"},{"foodId":"181e5e71368f9107","name":"雪葩","healthLevel":3,"calory":"97.0"},{"foodId":"9894d04837bc71ff","name":"雪梨","healthLevel":1,"calory":"79.0"},{"foodId":"9ac8a482c5e83d7a","name":"雪花梨","healthLevel":1,"calory":"42.0"},{"foodId":"b5cdc4a99cff5e94","name":"费南雪","healthLevel":3,"calory":"446.0"},{"foodId":"9df4d1187f3c0408","name":"大雪糕","healthLevel":3,"calory":"74.0"}]}